%YAML 1.1
%TAG !u! tag:unity3d.com,2011:
--- !u!221 &22100000
AnimatorOverrideController:
  m_ObjectHideFlags: 0
  m_PrefabParentObject: {fileID: 0}
  m_PrefabInternal: {fileID: 0}
  m_Name: Ranking
  m_Controller: {fileID: 9100000, guid: 49e157970338f3c47a8c34758ed640f0, type: 2}
  m_Clips:
  - m_OriginalClip: {fileID: 74647029283270630, guid: 49e157970338f3c47a8c34758ed640f0,
      type: 2}
    m_OverrideClip: {fileID: 74647029283270630, guid: 49e157970338f3c47a8c34758ed640f0,
      type: 2}
  - m_OriginalClip: {fileID: 74982733908672524, guid: 49e157970338f3c47a8c34758ed640f0,
      type: 2}
    m_OverrideClip: {fileID: 74982733908672524, guid: 49e157970338f3c47a8c34758ed640f0,
      type: 2}
  - m_OriginalClip: {fileID: 74815996822096272, guid: 49e157970338f3c47a8c34758ed640f0,
      type: 2}
    m_OverrideClip: {fileID: 74815996822096272, guid: 49e157970338f3c47a8c34758ed640f0,
      type: 2}
  - m_OriginalClip: {fileID: 74164558070754222, guid: 49e157970338f3c47a8c34758ed640f0,
      type: 2}
    m_OverrideClip: {fileID: 7400000, guid: 4c69e75d19d13d64c8ce5239cb7b5dae, type: 2}
