%YAML 1.1
%TAG !u! tag:unity3d.com,2011:
--- !u!1045 &1
EditorBuildSettings:
  m_ObjectHideFlags: 0
  serializedVersion: 2
  m_Scenes:
  - enabled: 1
    path: Assets/Scenes/Menus/MenuPrincipal.unity
    guid: 3b081e29751106a44a37556bb55ccfcf
  - enabled: 1
    path: Assets/Scenes/GameScene/TEST.unity
    guid: 686b1c98df5f6a4478373547037c5e7a
